…
### **2. What is mean total number of steps taken per day?**

#### **2.1. Calculate the total number of steps taken per day.**

```r
dta.n.by.day <- group_by(dta.n, date)
st.p.day <- summarise(dta.n.by.day, sum_steps = sum(steps))
st.p.day
```

```
## # A tibble: 53 × 2
##          date sum_steps
##        <date>     <int>
## 1  2012-10-02       126
## 2  2012-10-03     11352
## 3  2012-10-04     12116
## 4  2012-10-05     13294
## 5  2012-10-06     15420
## 6  2012-10-07     11015
## 7  2012-10-09     12811
## 8  2012-10-10      9900
## 9  2012-10-11     10304
## 10 2012-10-12     17382
## # ... with 43 more rows
```
…
